Intro to vector spatial data in R
…
Now we have a map with a close up on the United States. Notice how, unlike before, we still maintain the lines of Mexico and Canada borders, which helps make the map look more realistic.

2. Color coding our map

How do we move from where we are into color coding the states based, for instance, on their GDP?

Since we are using the ggplot package, we know that we can use aes() to map each plotted polygon to a value of GDP within our shapefile. Remember: the states shapefile is simply stored in R as tibble, with features as rows and attributes as columns. If we take a look at the names of the columns in our shapefile (using colnames()), we will see there are many attributes, but none of them is GDP. This means we need to find that information elsewhere and match it to our current shapefile.

For this map, we will use the 2021 GDP values for all US states provided by the US Bureau of Economic Analysis. That data is already present in our data folder in csv format; it has two columns, one for the state name and another one for the GDP value. We can load the data using the read_csv function from the tidyverse package, and then call the object to take a quick look at it.

library(tidyverse)
states_gdp <- read_csv('data/states_gdp.csv')
states_gdp

# A tibble: 51 × 2
   name                    gdp
   <chr>                 <dbl>
 1 Connecticut          298395
 2 Maine                 77963
 3 Massachusetts        641332
 4 New Hampshire         99673
 5 Rhode Island          66571
 6 Vermont               37104
 7 Delaware              81160
 8 District of Columbia 153670
 9 Maryland             443930
10 New Jersey           682946
# … with 41 more rows
…
